AWSTATS DATA FILE 7.0 (build 1.971)
# If you remove this file, all statistics for date 201406 will be lost/reset.
# Last config file used to build this data file was /home/klient.dhosting.pl/zywicki/emosir/awstats/conf/awstats.emosir.zgora.pl.conf.

# Position (offset in bytes) in this file for beginning of each section for
# direct I/O access. If you made changes somewhere in this file, you should
# also remove completely the MAP section (AWStats will rewrite it at next
# update).
BEGIN_MAP 27
POS_GENERAL 2035                
POS_TIME 2713                
POS_VISITOR 6251                
POS_DAY 6581                
POS_DOMAIN 3229                
POS_LOGIN 3461                
POS_ROBOT 3616                
POS_WORMS 3748                
POS_EMAILSENDER 3879                
POS_EMAILRECEIVER 4022                
POS_SESSION 6666                
POS_SIDER 6848                
POS_FILETYPES 4157                
POS_DOWNLOADS 4426                
POS_OS 4474                
POS_BROWSER 4562                
POS_SCREENSIZE 4687                
POS_UNKNOWNREFERER 4761                
POS_UNKNOWNREFERERBROWSER 4848                
POS_ORIGIN 4930                
POS_SEREFERRALS 5068                
POS_PAGEREFS 5212                
POS_SEARCHWORDS 5475                
POS_KEYWORDS 5627                
POS_MISC 2377                
POS_ERRORS 5686                
POS_CLUSTER 3317                
POS_SIDER_404 5801                
END_MAP

# LastLine    = Date of last record processed - Last record line number in last log - Last record offset in last log - Last record signature value
# FirstTime   = Date of first visit for history file
# LastTime    = Date of last visit for history file
# LastUpdate  = Date of last update - Nb of parsed records - Nb of parsed old records - Nb of parsed new records - Nb of parsed corrupted - Nb of parsed dropped
# TotalVisits = Number of visits
# TotalUnique = Number of unique visitors
# MonthHostsKnown   = Number of hosts known
# MonthHostsUnKnown = Number of hosts unknown
BEGIN_GENERAL 8
LastLine 20140701000103 11 3293 23572217021390
FirstTime 20140630213117
LastTime 20140630235833
LastUpdate 20140701004503 11 0 10 0 0
TotalVisits 6                   
TotalUnique 6                   
MonthHostsKnown 0                   
MonthHostsUnknown 6                   
END_GENERAL

# Misc ID - Pages - Hits - Bandwidth
BEGIN_MISC 10
QuickTimeSupport 0 0 0
JavaEnabled 0 0 0
JavascriptDisabled 0 0 0
PDFSupport 0 0 0
WindowsMediaPlayerSupport 0 0 0
AddToFavourites 0 0 0
RealPlayerSupport 0 0 0
TotalMisc 0 0 0
DirectorSupport 0 0 0
FlashSupport 0 0 0
END_MISC

# Hour - Pages - Hits - Bandwidth - Not viewed Pages - Not viewed Hits - Not viewed Bandwidth
BEGIN_TIME 24
0 0 0 0 0 0 0
1 0 0 0 0 0 0
2 0 0 0 0 0 0
3 0 0 0 0 0 0
4 0 0 0 0 0 0
5 0 0 0 0 0 0
6 0 0 0 0 0 0
7 0 0 0 0 0 0
8 0 0 0 0 0 0
9 0 0 0 0 0 0
10 0 0 0 0 0 0
11 0 0 0 0 0 0
12 0 0 0 0 0 0
13 0 0 0 0 0 0
14 0 0 0 0 0 0
15 0 0 0 0 0 0
16 0 0 0 0 0 0
17 0 0 0 0 0 0
18 0 0 0 0 0 0
19 0 0 0 0 0 0
20 0 0 0 0 0 0
21 20 102 2791475 0 3 8978
22 234 703 13402249 5 9 9551
23 157 641 8835554 3 6 9324
END_TIME

# Domain - Pages - Hits - Bandwidth
# The 10 first Pages must be first (order not required for others)
BEGIN_DOMAIN 1
ip 411 1446 25029278
END_DOMAIN

# Cluster ID - Pages - Hits - Bandwidth
BEGIN_CLUSTER 0
END_CLUSTER

# Login - Pages - Hits - Bandwidth - Last visit
# The 10 first Pages must be first (order not required for others)
BEGIN_LOGIN 0
END_LOGIN

# Robot ID - Hits - Bandwidth - Last visit - Hits on robots.txt
# The 10 first Hits must be first (order not required for others)
BEGIN_ROBOT 0
END_ROBOT

# Worm ID - Hits - Bandwidth - Last visit
# The 5 first Hits must be first (order not required for others)
BEGIN_WORMS 0
END_WORMS

# EMail - Hits - Bandwidth - Last visit
# The 20 first Hits must be first (order not required for others)
BEGIN_EMAILSENDER 0
END_EMAILSENDER

# EMail - Hits - Bandwidth - Last visit
# The 20 first hits must be first (order not required for others)
BEGIN_EMAILRECEIVER 0
END_EMAILRECEIVER

# Files type - Hits - Bandwidth - Bandwidth without compression - Bandwidth after compression
BEGIN_FILETYPES 11
css 45 339579 0 0
eot 3 59807 0 0
png 630 7869127 0 0
woff 46 831958 0 0
php 338 2350964 0 0
html 22 136961 0 0
jpg 200 8021544 0 0
js 124 5371772 0 0
Unknown 2 13730 0 0
gif 35 16179 0 0
svg 1 17657 0 0
END_FILETYPES

# Downloads - Hits - Bandwidth
BEGIN_DOWNLOADS 0
END_DOWNLOADS

# OS ID - Hits
BEGIN_OS 4
macosx 651
linuxandroid 88
winvista 504
win7 203
END_OS

# Browser ID - Hits
BEGIN_BROWSER 5
firefox28.0 48
safari8.0 92
mozilla 43
chrome35.0.1916.153 1175
android 88
END_BROWSER

# Screen size - Hits
BEGIN_SCREENSIZE 0
END_SCREENSIZE

# Unknown referer OS - Last visit date
BEGIN_UNKNOWNREFERER 0
END_UNKNOWNREFERER

# Unknown referer Browser - Last visit date
BEGIN_UNKNOWNREFERERBROWSER 0
END_UNKNOWNREFERERBROWSER

# Origin - Pages - Hits 
BEGIN_ORIGIN 6
From0 32 32
From1 0 0
From2 0 0
From3 5 35
From4 374 1379
From5 0 0
END_ORIGIN

# Search engine referers ID - Pages - Hits
BEGIN_SEREFERRALS 0
END_SEREFERRALS

# External page referers - Pages - Hits
# The 10 first Pages must be first (order not required for others)
BEGIN_PAGEREFS 3
http://admin.d/customers/v/info/33954/ 2 2
http://emosir.dkonto.pl/nasze-obiekty/ 2 9
http://emosir.dkonto.pl 1 24
END_PAGEREFS

# Search keyphrases - Number of search
# The 10 first number of search must be first (order not required for others)
BEGIN_SEARCHWORDS 0
END_SEARCHWORDS

# Search keywords - Number of search
# The 10 first number of search must be first (order not required for others)
BEGIN_KEYWORDS 0
END_KEYWORDS

# Errors - Hits - Bandwidth
BEGIN_ERRORS 4
401 1 28
302 2 40
301 4 866
404 3 26919
END_ERRORS

# URL with 404 errors - Hits - Last URL referer
BEGIN_SIDER_404 3
/browserconfig.xml 1 -
/mailto:mosir@mosir.zgora.pl 1 -
/assets/components/minifyx/cache/scripts_d6a37b2aeb.min.js 1 http://emosir.zgora.pl/
END_SIDER_404

# Host - Pages - Hits - Bandwidth - Last visit date - [Start date of last visit] - [Last page of last visit]
# [Start date of last visit] and [Last page of last visit] are saved only if session is not finished
# The 10 first Hits must be first (order not required for others)
BEGIN_VISITOR 6
89.67.58.255 185 435 7411926 20140630231629
89.71.74.115 168 706 10128917 20140630235833
92.244.36.246 36 136 3422706 20140630233318
178.23.107.80 11 56 1566272 20140630225449
94.254.207.7 6 21 391311 20140630214712
89.71.120.176 5 92 2108146 20140630221913
END_VISITOR

# Date - Pages - Hits - Bandwidth - Visits
BEGIN_DAY 1
20140630 411 1446 25029278 6
END_DAY

# Session range - Number of visits
BEGIN_SESSION 5
1h+ 2
30s-2mn 1
2mn-5mn 1
0s-30s 1
30mn-1h 1
END_SESSION

# URL - Pages - Bandwidth - Entry - Exit
# The 10 first Pages must be first (order not required for others)
BEGIN_SIDER 72
/manager/min/ 51 949748 0 0
/ 45 402410 6 0
/connectors/resource/ 44 36672 0 0
/connectors/system/registry/register.php 32 3287 0 0
/assets/fonts/museo/2A545B_1_0.woff 22 374275 0 0
/assets/fonts/museo/2A545B_0_0.woff 22 368819 0 1
/connectors/system/ 19 3203 0 0
/connectors/system/phpthumb.php 15 26479 0 0
/manager/ 13 192946 0 0
/connectors/lang.js.php 9 218250 0 0
/sport-szkolny/szko%C5%82y-podstawowe/aktualno%C5%9Bci/ 1 5231 0 0
/sport-szkolny/szko%C5%82y-gimnazjalne/ 1 5866 0 0
/kalendarz-glowny/ 1 5621 0 0
/sport-szkolny/szko%C5%82y-gimnazjalne/aktualnosci-gim/ 1 5415 0 0
/sport-szkolny/szko%C5%82y-ponadgimnazjalne/duplicate-of-duplicate-of-badminton/ 3 18338 0 0
/assets/components/quickstartbuttons/fontawesome/fontawesome-webfont.woff 2 88864 0 0
/oferta/ 1 6093 0 0
/bilety-i-rezerwacja/rezerwacje.html 1 5902 0 0
/aktualnosci/2014/05/06/tescik 2 13730 0 0
/nasze-obiekty/centrum-rekreacyjno-sportowe/ 2 13762 0 1
/connectors/resource/resourcegroup.php 2 320 0 0
/connectors/system/derivatives.php 2 300 0 0
/nasze-obiekty/centrum-rekreacyjno-sportowe/park-wodny/regulamin.html 1 6188 0 0
/sport-szkolny/szko%C5%82y-podstawowe/ 5 47612 0 0
/mosir/historia/historia-podwodna/ 1 7782 0 0
/connectors/element/template.php 5 5690 0 0
/nasze-obiekty/stadion/aktualno%C5%9Bci/ 2 11170 0 0
/sport-szkolny/szko%C5%82y-podstawowe/koszyk%C3%B3wka/ 1 6039 0 0
/sport-szkolny/szko%C5%82y-gimnazjalne/duplicate-of-badminton/ 1 6086 0 0
/assets/components/migx/connector.php 1 1929 0 0
/na-skr%C3%B3ty-menu/mapa-strony.html 1 10071 0 0
/connectors/security/user.php 4 2207 0 0
/sport-szkolny/szko%C5%82y-ponadgimnazjalne/duplicate-of-duplicate-of-koszyk%C3%B3wka/ 1 6137 0 0
/assets/components/quip/connector.php 2 92 0 0
/assets/css/fonts/flexslider-icon.eot 1 2082 0 0
/assets/fonts/museo/2A545B_0_0.eot 1 28766 0 0
/sport-szkolny/szko%C5%82y-ponadgimnazjalne/ 1 5872 0 0
/aktualnosci/ 8 47540 0 0
/nasze-obiekty/ 7 53378 0 0
/mosir/kontakt.html 9 56866 0 1
/sport-szkolny/szko%C5%82y-gimnazjalne/aktualnosci-gim/2014/06/07/testowy-gim/ 1 6850 0 0
/sport-i-rekreacja/bieganie.html 2 9716 0 0
/promocje/promocja-urodzinowa.html 1 6351 0 0
/sport-i-rekreacja/fitness.html 1 4781 0 1
/connectors/layout/modx.config.js.php 9 69715 0 0
/szukaj.html 2 13896 0 0
/connectors/element/ 2 494 0 0
/nasze-obiekty/stadion-%C5%BCu%C5%BClowy.html 1 6137 0 0
/nasze-obiekty/kryta-p%C5%82ywalnia/aktualno%C5%9Bci/2014/06/26/przerw-technologiczna/ 1 6686 0 0
/sport-szkolny/szko%C5%82y-ponadgimnazjalne/duplicate-of-duplicate-of-pi%C5%82ka-siatkowa/ 1 6137 0 0
/assets/components/eletters/connector.php 3 3574 0 0
/sport-szkolny/szko%C5%82y-podstawowe/badminton/ 6 36534 0 0
/assets/components/articles/connector.php 1 4316 0 0
/sport-szkolny/ 3 16873 0 0
/promocje/ 1 5817 0 0
/connectors/resource/locks.php 3 231 0 0
/nasze-obiekty/hala-sportowo-akrobatyczna/hala-akrobatyczna/ 1 6519 0 1
/mosir/ 2 12400 0 0
/connectors/system/settings.php 7 5103 0 0
/connectors/source/ 1 481 0 0
/connectors/security/logout.php 1 77 0 0
/connectors/workspace/namespace.php 1 412 0 0
/sport-szkolny/szko%C5%82y-podstawowe/badminton/informacje/ 4 26672 0 0
/sport-szkolny/szko%C5%82y-gimnazjalne/duplicate-of-badminton/duplicate-of-wyniki.html 1 6100 0 0
/nasze-obiekty/centrum-rekreacyjno-sportowe/park-wodny/ 4 31604 0 1
/assets/fonts/museo/2A545B_1_0.eot 1 28959 0 0
/nasze-obiekty/stadion/aktualno%C5%9Bci/2014/06/20/nowe-korty-tenisowe/ 1 6721 0 0
/connectors/system/contenttype.php 2 600 0 0
/sport-szkolny/szko%C5%82y-podstawowe/lekka-atletyka/ 1 6082 0 0
/connectors/browser/directory.php 1 1591 0 0
/nasze-obiekty/ochla.html 1 6104 0 0
/sport-i-rekreacja/p%C5%82ywanie.html 1 4849 0 0
END_SIDER
